[{
	"id": "9cbd02d5.b121b",
	"type": "tab",
	"label": "Flow 1",
	"disabled": false,
	"info": ""
}, {
	"id": "32965043.08f56",
	"type": "serial out",
	"z": "9cbd02d5.b121b",
	"name": "Lock",
	"serial": "39abf91.040e406",
	"x": 750,
	"y": 80,
	"wires": []
}, {
	"id": "d5e7c27d.b9e5f8",
	"type": "serial in",
	"z": "9cbd02d5.b121b",
	"name": "Arduino Serial out",
	"serial": "39abf91.040e406",
	"x": 140,
	"y": 80,
	"wires": [["c254a921.e0e45"]]
}, {
	"id": "c254a921.e0e45",
	"type": "switch",
	"z": "9cbd02d5.b121b",
	"name": "",
	"property": "payload",
	"propertyType": "msg",
	"rules": [{
			"t": "regex",
			"v": "BTN",
			"vt": "str",
			"case": false
		}, {
			"t": "regex",
			"v": "RFID",
			"vt": "str",
			"case": false
		}
	],
	"checkall": "true",
	"repair": false,
	"outputs": 2,
	"x": 310,
	"y": 80,
	"wires": [["2c55c36a.4f90ec"], ["da9bdcd6.65516"]]
}, {
	"id": "2c55c36a.4f90ec",
	"type": "function",
	"z": "9cbd02d5.b121b",
	"name": "Button Press",
	"func": "matches = msg.payload.match(/(\\d+)/);\nif (matches) {\n    if (matches[0] === \"0\") {\n        msg.payload = \"LED:0:255:0\\n\";\n        msg.userid=\"nobody\"\n        return msg;\n    }\n}",
	"outputs": 1,
	"noerr": 0,
	"x": 450,
	"y": 40,
	"wires": [["6867bede.29da88"]]
}, {
	"id": "da9bdcd6.65516",
	"type": "function",
	"z": "9cbd02d5.b121b",
	"name": "RFID Read",
	"func": "val = msg.payload.substring(5, msg.payload.length - 1);\nif (val.length == 12) {\n    msg.userid = val;\n    msg.payload = \"LED:0:255:0\\n\";\n    return msg;\n}\n",
	"outputs": 1,
	"noerr": 0,
	"x": 450,
	"y": 120,
	"wires": [["e3c94d6d.06d95"]]
}, {
	"id": "6867bede.29da88",
	"type": "function",
	"z": "9cbd02d5.b121b",
	"name": "Send values",
	"func": "val = context.get(\"timeout\");\nif (val)\n    clearTimeout(val);\nelse\n    node.send(msg);\n\nval = setTimeout(function() { \n    msg.payload = \"LED:0:0:0\\n\";\n    node.send(msg);\n    context.set(\"timeout\", null)\n}, 2000);\ncontext.set(\"timeout\", val)",
	"outputs": 1,
	"noerr": 0,
	"x": 610,
	"y": 40,
	"wires": [["32965043.08f56"]]
}, {
	"id": "e3c94d6d.06d95",
	"type": "function",
	"z": "9cbd02d5.b121b",
	"name": "Send values",
	"func": "val = context.get(\"timeout\");\nif (val)\n    clearTimeout(val);\nelse\n    node.send(msg);\n\nval = setTimeout(function() { \n    msg.payload = \"LED:0:0:0\\n\";\n    node.send(msg);\n    context.set(\"timeout\", null)\n}, 2000);\ncontext.set(\"timeout\", val)",
	"outputs": 1,
	"noerr": 0,
	"x": 610,
	"y": 120,
	"wires": [["32965043.08f56"]]
}, {
	"id": "39abf91.040e406",
	"type": "serial-port",
	"z": "",
	"serialport": "/dev/ttyACM0",
	"serialbaud": "9600",
	"databits": "8",
	"parity": "none",
	"stopbits": "1",
	"waitfor": "",
	"newline": "\\n",
	"bin": "false",
	"out": "char",
	"addchar": "",
	"responsetimeout": "10000"
}]